1,20 X 25,Plots,plot_size,0000-00-00 00:00:00,0000-00-00 00:00:0,0
2,20 X 20,Plots,plot_size,0000-00-00 00:00:00,0000-00-00 00:00:0,0
3,15 X 20,Plots,plot_size,0000-00-00 00:00:00,0000-00-00 00:00:0,0
4,15 X 25,Plots,plot_size,0000-00-00 00:00:00,0000-00-00 00:00:0,0
5,30 X 30,Plots,plot_size,0000-00-00 00:00:00,0000-00-00 00:00:0,0
6,10 X 15,Plots,plot_size,0000-00-00 00:00:00,0000-00-00 00:00:0,0
